<?xml version="1.0" encoding="UTF-8" standalone="no"?>
<!DOCTYPE svg PUBLIC "-//W3C//DTD SVG 1.1//EN"
 "http://www.w3.org/Graphics/SVG/1.1/DTD/svg11.dtd">
<!-- Generated by graphviz version 2.47.0 (20210316.0004)
 -->
<!-- Pages: 1 -->
<svg width="281pt" height="384pt"
 viewBox="0.00 0.00 281.21 384.44" xmlns="http://www.w3.org/2000/svg" xmlns:xlink="http://www.w3.org/1999/xlink">
<g id="graph0" class="graph" transform="scale(1 1) rotate(0) translate(36 348.44)">
<polygon fill="white" stroke="transparent" points="-36,36 -36,-348.44 245.21,-348.44 245.21,36 -36,36"/>
<!-- leuk -->
<g id="node1" class="node">
<title>leuk</title>
<ellipse fill="none" stroke="black" stroke-width="6" cx="47.09" cy="-149.28" rx="47.19" ry="47.19"/>
<text text-anchor="middle" x="47.09" y="-153.08" font-family="arial" font-size="14.00">Leuk</text>
<text text-anchor="middle" x="47.09" y="-138.08" font-family="arial" font-size="14.00">onderwerp</text>
</g>
<!-- nuttig -->
<g id="node3" class="node">
<title>nuttig</title>
<ellipse fill="none" stroke="black" stroke-width="6" cx="123.37" cy="-47.09" rx="47.19" ry="47.19"/>
<text text-anchor="middle" x="123.37" y="-50.89" font-family="arial" font-size="14.00">Nuttig</text>
<text text-anchor="middle" x="123.37" y="-35.89" font-family="arial" font-size="14.00">onderwerp</text>
</g>
<!-- leuk&#45;&#45;nuttig -->
<g id="edge1" class="edge">
<title>leuk&#45;&#45;nuttig</title>
<path fill="none" stroke="black" stroke-width="2" d="M75.28,-111.52C81.73,-102.88 88.59,-93.69 95.04,-85.04"/>
</g>
<!-- wil -->
<g id="node4" class="node">
<title>wil</title>
<ellipse fill="none" stroke="black" stroke-width="6" cx="90.15" cy="-269.31" rx="43.27" ry="43.27"/>
<text text-anchor="middle" x="90.15" y="-280.61" font-family="arial" font-size="14.00">Intentie</text>
<text text-anchor="middle" x="90.15" y="-265.61" font-family="arial" font-size="14.00">om te</text>
<text text-anchor="middle" x="90.15" y="-250.61" font-family="arial" font-size="14.00">leren</text>
</g>
<!-- leuk&#45;&#45;wil -->
<g id="edge2" class="edge">
<title>leuk&#45;&#45;wil</title>
<path fill="none" stroke="black" stroke-width="2" d="M63,-193.63C67.08,-204.98 71.44,-217.14 75.44,-228.32"/>
</g>
<!-- discipline -->
<g id="node2" class="node">
<title>discipline</title>
<ellipse fill="none" stroke="black" stroke-width="6" cx="166.83" cy="-167.18" rx="42.27" ry="42.27"/>
<text text-anchor="middle" x="166.83" y="-170.98" font-family="arial" font-size="14.00">Veel</text>
<text text-anchor="middle" x="166.83" y="-155.98" font-family="arial" font-size="14.00">discipline</text>
</g>
<!-- discipline&#45;&#45;leuk -->
<g id="edge5" class="edge">
<title>discipline&#45;&#45;leuk</title>
<path fill="none" stroke="black" stroke-width="2" d="M124.61,-160.87C114.65,-159.38 103.97,-157.78 93.82,-156.26"/>
</g>
<!-- discipline&#45;&#45;nuttig -->
<g id="edge3" class="edge">
<title>discipline&#45;&#45;nuttig</title>
<path fill="none" stroke="black" stroke-width="2" d="M152.36,-127.19C148.21,-115.73 143.66,-103.16 139.42,-91.46"/>
</g>
<!-- discipline&#45;&#45;wil -->
<g id="edge4" class="edge">
<title>discipline&#45;&#45;wil</title>
<path fill="none" stroke="black" stroke-width="2" d="M141.3,-201.18C133.19,-211.98 124.23,-223.92 116.09,-234.75"/>
</g>
</g>
</svg>
